CEMA 0907: Statistics in the Real World
…
---

# `count()`

You *could also* just use the `sort = TRUE` option in `count()` to sort in **descending order**:

```r
video_games %>%
  count(publisher, sort = TRUE)
```

```
## # A tibble: 13,954 × 2
##    publisher               n
##    <chr>               <int>
##  1 Big Fish Games        284
##  2 SEGA                  141
##  3 Strategy First        129
##  4 Ubisoft               123
##  5 Square Enix            95
##  6 <NA>                   95
##  7 Sekai Project          94
##  8 Choice of Games        92
##  9 Dagestan Technology    89
## 10 1C Entertainment       85
## # … with 13,944 more rows
```
…
